{
    "name": "ICD.Engine.Core",
    "rootNamespace": "ICD.Engine.Core",
    "references": [
        "GUID:f06555f75b070af458a003d92f9efb00"
    ],
    "includePlatforms": [],
    "excludePlatforms": [],
    "allowUnsafeCode": false,
    "overrideReferences": false,
    "precompiledReferences": [],
    "autoReferenced": true,
    "defineConstraints": [],
    "versionDefines": [],
    "noEngineReferences": false
}