%YAML 1.1
%TAG !u! tag:unity3d.com,2011:
--- !u!114 &11400000
MonoBehaviour:
  m_ObjectHideFlags: 0
  m_CorrespondingSourceObject: {fileID: 0}
  m_PrefabInstance: {fileID: 0}
  m_PrefabAsset: {fileID: 0}
  m_GameObject: {fileID: 0}
  m_Enabled: 1
  m_EditorHideFlags: 0
  m_Script: {fileID: 11500000, guid: 5b11a58205ec3474ca216360e9fa74a8, type: 3}
  m_Name: Assets Shared Data
  m_EditorClassIdentifier: 
  m_TableCollectionName: Assets
  m_TableCollectionNameGuidString: 202771e7b5f9fec4788c07169cbe2ac5
  m_Entries:
  - m_Id: 328255052382208
    m_Key: Logo
    m_Metadata:
      m_Items: []
  m_Metadata:
    m_Items:
    - rid: 6438452741579997210
  m_KeyGenerator:
    rid: 6438452741579997208
  references:
    version: 2
    RefIds:
    - rid: 6438452741579997208
      type: {class: DistributedUIDGenerator, ns: UnityEngine.Localization.Tables, asm: Unity.Localization}
      data:
        m_CustomEpoch: 1661986978202
    - rid: 6438452741579997210
      type: {class: AssetTypeMetadata, ns: UnityEngine.Localization.Metadata, asm: Unity.Localization}
      data:
        m_Entries:
        - m_KeyId: 328255052382208
          m_TableCodes:
          - ru-RU
          - en-US
        m_TypeString: UnityEngine.Sprite, UnityEngine.CoreModule, Version=0.0.0.0,
          Culture=neutral, PublicKeyToken=null
