%YAML 1.1
%TAG !u! tag:unity3d.com,2011:
--- !u!114 &11400000
MonoBehaviour:
  m_ObjectHideFlags: 0
  m_CorrespondingSourceObject: {fileID: 0}
  m_PrefabInstance: {fileID: 0}
  m_PrefabAsset: {fileID: 0}
  m_GameObject: {fileID: 0}
  m_Enabled: 1
  m_EditorHideFlags: 0
  m_Script: {fileID: 11500000, guid: 97269afb30aa84742ae3f3342603618a, type: 3}
  m_Name: Assets_ru-RU
  m_EditorClassIdentifier: 
  m_LocaleId:
    m_Code: ru-RU
  m_SharedData: {fileID: 11400000, guid: 202771e7b5f9fec4788c07169cbe2ac5, type: 2}
  m_Metadata:
    m_Items: []
  m_TableData:
  - m_Id: 328255052382208
    m_Localized: 77150ff1b1c84a94ca165fb89de67471
    m_Metadata:
      m_Items: []
  references:
    version: 2
    RefIds: []
