%YAML 1.1
%TAG !u! tag:unity3d.com,2011:
--- !u!114 &11400000
MonoBehaviour:
  m_ObjectHideFlags: 0
  m_CorrespondingSourceObject: {fileID: 0}
  m_PrefabInstance: {fileID: 0}
  m_PrefabAsset: {fileID: 0}
  m_GameObject: {fileID: 0}
  m_Enabled: 1
  m_EditorHideFlags: 0
  m_Script: {fileID: 11500000, guid: bbb281ee3bf0b054c82ac2347e9e782c, type: 3}
  m_Name: Localization-Assets-Russian (Russia) (ru-RU)
  m_EditorClassIdentifier: 
  m_GroupName: Localization-Assets-Russian (Russia) (ru-RU)
  m_Data:
    m_SerializedData: []
  m_GUID: 1a54eb68e52bf0147a444a1391b95efa
  m_SerializeEntries:
  - m_GUID: 77150ff1b1c84a94ca165fb89de67471
    m_Address: LogoRU
    m_ReadOnly: 1
    m_SerializedLabels:
    - Locale-ru-RU
  m_ReadOnly: 1
  m_Settings: {fileID: 11400000, guid: 5da4159297869ab438031c3b2f3f7016, type: 2}
  m_SchemaSet:
    m_Schemas:
    - {fileID: 11400000, guid: 10e95dc60e663f748945d981eb77f416, type: 2}
    - {fileID: 11400000, guid: d413b868645a234419966196dbbb2446, type: 2}
