%YAML 1.1
%TAG !u! tag:unity3d.com,2011:
--- !u!1001 &6235241392981420547
PrefabInstance:
  m_ObjectHideFlags: 0
  serializedVersion: 2
  m_Modification:
    m_TransformParent: {fileID: 0}
    m_Modifications:
    - target: {fileID: 154476790478178186, guid: 2c7544f66d226e145bf69bbdb68849d8, type: 3}
      propertyPath: m_LocalScale.x
      value: -1
      objectReference: {fileID: 0}
    - target: {fileID: 154476790642154435, guid: 2c7544f66d226e145bf69bbdb68849d8, type: 3}
      propertyPath: m_LocalScale.x
      value: -1
      objectReference: {fileID: 0}
    - target: {fileID: 154476791006826172, guid: 2c7544f66d226e145bf69bbdb68849d8, type: 3}
      propertyPath: m_LocalScale.x
      value: -1
      objectReference: {fileID: 0}
    - target: {fileID: 154476791182595199, guid: 2c7544f66d226e145bf69bbdb68849d8, type: 3}
      propertyPath: m_LocalScale.x
      value: -1
      objectReference: {fileID: 0}
    - target: {fileID: 154476791748868002, guid: 2c7544f66d226e145bf69bbdb68849d8, type: 3}
      propertyPath: m_LocalScale.x
      value: -1
      objectReference: {fileID: 0}
    - target: {fileID: 154476792149649248, guid: 2c7544f66d226e145bf69bbdb68849d8, type: 3}
      propertyPath: m_LocalScale.x
      value: -1
      objectReference: {fileID: 0}
    - target: {fileID: 416185237923488544, guid: 2c7544f66d226e145bf69bbdb68849d8, type: 3}
      propertyPath: m_LocalScale.x
      value: -1
      objectReference: {fileID: 0}
    - target: {fileID: 1642850294724012626, guid: 2c7544f66d226e145bf69bbdb68849d8, type: 3}
      propertyPath: m_Name
      value: Moving Icons Row (Reversed)
      objectReference: {fileID: 0}
    - target: {fileID: 1642850294724012627, guid: 2c7544f66d226e145bf69bbdb68849d8, type: 3}
      propertyPath: m_Pivot.x
      value: 0.5
      objectReference: {fileID: 0}
    - target: {fileID: 1642850294724012627, guid: 2c7544f66d226e145bf69bbdb68849d8, type: 3}
      propertyPath: m_Pivot.y
      value: 0.5
      objectReference: {fileID: 0}
    - target: {fileID: 1642850294724012627, guid: 2c7544f66d226e145bf69bbdb68849d8, type: 3}
      propertyPath: m_RootOrder
      value: 0
      objectReference: {fileID: 0}
    - target: {fileID: 1642850294724012627, guid: 2c7544f66d226e145bf69bbdb68849d8, type: 3}
      propertyPath: m_AnchorMax.x
      value: 1
      objectReference: {fileID: 0}
    - target: {fileID: 1642850294724012627, guid: 2c7544f66d226e145bf69bbdb68849d8, type: 3}
      propertyPath: m_AnchorMax.y
      value: 0.5
      objectReference: {fileID: 0}
    - target: {fileID: 1642850294724012627, guid: 2c7544f66d226e145bf69bbdb68849d8, type: 3}
      propertyPath: m_AnchorMin.x
      value: 0
      objectReference: {fileID: 0}
    - target: {fileID: 1642850294724012627, guid: 2c7544f66d226e145bf69bbdb68849d8, type: 3}
      propertyPath: m_AnchorMin.y
      value: 0.5
      objectReference: {fileID: 0}
    - target: {fileID: 1642850294724012627, guid: 2c7544f66d226e145bf69bbdb68849d8, type: 3}
      propertyPath: m_SizeDelta.x
      value: 0
      objectReference: {fileID: 0}
    - target: {fileID: 1642850294724012627, guid: 2c7544f66d226e145bf69bbdb68849d8, type: 3}
      propertyPath: m_SizeDelta.y
      value: 138
      objectReference: {fileID: 0}
    - target: {fileID: 1642850294724012627, guid: 2c7544f66d226e145bf69bbdb68849d8, type: 3}
      propertyPath: m_LocalScale.x
      value: -1
      objectReference: {fileID: 0}
    - target: {fileID: 1642850294724012627, guid: 2c7544f66d226e145bf69bbdb68849d8, type: 3}
      propertyPath: m_LocalPosition.x
      value: 0
      objectReference: {fileID: 0}
    - target: {fileID: 1642850294724012627, guid: 2c7544f66d226e145bf69bbdb68849d8, type: 3}
      propertyPath: m_LocalPosition.y
      value: 0
      objectReference: {fileID: 0}
    - target: {fileID: 1642850294724012627, guid: 2c7544f66d226e145bf69bbdb68849d8, type: 3}
      propertyPath: m_LocalPosition.z
      value: 0
      objectReference: {fileID: 0}
    - target: {fileID: 1642850294724012627, guid: 2c7544f66d226e145bf69bbdb68849d8, type: 3}
      propertyPath: m_LocalRotation.w
      value: 0.99785894
      objectReference: {fileID: 0}
    - target: {fileID: 1642850294724012627, guid: 2c7544f66d226e145bf69bbdb68849d8, type: 3}
      propertyPath: m_LocalRotation.x
      value: 0
      objectReference: {fileID: 0}
    - target: {fileID: 1642850294724012627, guid: 2c7544f66d226e145bf69bbdb68849d8, type: 3}
      propertyPath: m_LocalRotation.y
      value: 0
      objectReference: {fileID: 0}
    - target: {fileID: 1642850294724012627, guid: 2c7544f66d226e145bf69bbdb68849d8, type: 3}
      propertyPath: m_LocalRotation.z
      value: 0.065403156
      objectReference: {fileID: 0}
    - target: {fileID: 1642850294724012627, guid: 2c7544f66d226e145bf69bbdb68849d8, type: 3}
      propertyPath: m_AnchoredPosition.x
      value: 0
      objectReference: {fileID: 0}
    - target: {fileID: 1642850294724012627, guid: 2c7544f66d226e145bf69bbdb68849d8, type: 3}
      propertyPath: m_AnchoredPosition.y
      value: 18
      objectReference: {fileID: 0}
    - target: {fileID: 1642850294724012627, guid: 2c7544f66d226e145bf69bbdb68849d8, type: 3}
      propertyPath: m_LocalEulerAnglesHint.x
      value: 0
      objectReference: {fileID: 0}
    - target: {fileID: 1642850294724012627, guid: 2c7544f66d226e145bf69bbdb68849d8, type: 3}
      propertyPath: m_LocalEulerAnglesHint.y
      value: 0
      objectReference: {fileID: 0}
    - target: {fileID: 1642850294724012627, guid: 2c7544f66d226e145bf69bbdb68849d8, type: 3}
      propertyPath: m_LocalEulerAnglesHint.z
      value: 7.5
      objectReference: {fileID: 0}
    - target: {fileID: 3178162159696018262, guid: 2c7544f66d226e145bf69bbdb68849d8, type: 3}
      propertyPath: m_LocalScale.x
      value: -1
      objectReference: {fileID: 0}
    m_RemovedComponents: []
  m_SourcePrefab: {fileID: 100100000, guid: 2c7544f66d226e145bf69bbdb68849d8, type: 3}
