%YAML 1.1
%TAG !u! tag:unity3d.com,2011:
--- !u!1 &1511148002681086986
GameObject:
  m_ObjectHideFlags: 0
  m_CorrespondingSourceObject: {fileID: 0}
  m_PrefabInstance: {fileID: 0}
  m_PrefabAsset: {fileID: 0}
  serializedVersion: 6
  m_Component:
  - component: {fileID: 4118719489311164817}
  - component: {fileID: 7216988341412359543}
  - component: {fileID: 3955514618075104127}
  - component: {fileID: 1031808503430384608}
  m_Layer: 5
  m_Name: Logo
  m_TagString: Untagged
  m_Icon: {fileID: 0}
  m_NavMeshLayer: 0
  m_StaticEditorFlags: 0
  m_IsActive: 1
--- !u!224 &4118719489311164817
RectTransform:
  m_ObjectHideFlags: 0
  m_CorrespondingSourceObject: {fileID: 0}
  m_PrefabInstance: {fileID: 0}
  m_PrefabAsset: {fileID: 0}
  m_GameObject: {fileID: 1511148002681086986}
  m_LocalRotation: {x: -0, y: -0, z: -0, w: 1}
  m_LocalPosition: {x: 0, y: 0, z: 0}
  m_LocalScale: {x: 1, y: 1, z: 1}
  m_ConstrainProportionsScale: 0
  m_Children: []
  m_Father: {fileID: 0}
  m_RootOrder: 0
  m_LocalEulerAnglesHint: {x: 0, y: 0, z: 0}
  m_AnchorMin: {x: 0.5, y: 1}
  m_AnchorMax: {x: 0.5, y: 1}
  m_AnchoredPosition: {x: 0, y: 467.8}
  m_SizeDelta: {x: 158, y: 44}
  m_Pivot: {x: 0.5, y: 0.5}
--- !u!222 &7216988341412359543
CanvasRenderer:
  m_ObjectHideFlags: 0
  m_CorrespondingSourceObject: {fileID: 0}
  m_PrefabInstance: {fileID: 0}
  m_PrefabAsset: {fileID: 0}
  m_GameObject: {fileID: 1511148002681086986}
  m_CullTransparentMesh: 1
--- !u!114 &3955514618075104127
MonoBehaviour:
  m_ObjectHideFlags: 0
  m_CorrespondingSourceObject: {fileID: 0}
  m_PrefabInstance: {fileID: 0}
  m_PrefabAsset: {fileID: 0}
  m_GameObject: {fileID: 1511148002681086986}
  m_Enabled: 1
  m_EditorHideFlags: 0
  m_Script: {fileID: 11500000, guid: fe87c0e1cc204ed48ad3b37840f39efc, type: 3}
  m_Name: 
  m_EditorClassIdentifier: 
  m_Material: {fileID: 0}
  m_Color: {r: 1, g: 1, b: 1, a: 1}
  m_RaycastTarget: 0
  m_RaycastPadding: {x: 0, y: 0, z: 0, w: 0}
  m_Maskable: 0
  m_OnCullStateChanged:
    m_PersistentCalls:
      m_Calls: []
  m_Sprite: {fileID: 21300000, guid: 6c4a242ada7a10445a5e3660e7b11d3a, type: 3}
  m_Type: 0
  m_PreserveAspect: 1
  m_FillCenter: 1
  m_FillMethod: 4
  m_FillAmount: 1
  m_FillClockwise: 1
  m_FillOrigin: 0
  m_UseSpriteMesh: 0
  m_PixelsPerUnitMultiplier: 1
--- !u!114 &1031808503430384608
MonoBehaviour:
  m_ObjectHideFlags: 0
  m_CorrespondingSourceObject: {fileID: 0}
  m_PrefabInstance: {fileID: 0}
  m_PrefabAsset: {fileID: 0}
  m_GameObject: {fileID: 1511148002681086986}
  m_Enabled: 1
  m_EditorHideFlags: 0
  m_Script: {fileID: 11500000, guid: 69beb381e244f92449b8c4cf954630e9, type: 3}
  m_Name: 
  m_EditorClassIdentifier: 
  m_TrackedObjects:
  - rid: 8773299088047472642
  references:
    version: 2
    RefIds:
    - rid: 8773299088047472642
      type: {class: TrackedUGuiGraphic, ns: UnityEngine.Localization.PropertyVariants.TrackedObjects, asm: Unity.Localization}
      data:
        m_Target: {fileID: 3955514618075104127}
        m_TrackedProperties:
          items:
          - rid: 8773299088047472643
        m_UpdateType: 0
    - rid: 8773299088047472643
      type: {class: LocalizedAssetProperty, ns: UnityEngine.Localization.PropertyVariants.TrackedProperties, asm: Unity.Localization}
      data:
        m_Localized:
          rid: 8773299088047472644
        m_PropertyPath: m_Sprite
    - rid: 8773299088047472644
      type: {class: LocalizedSprite, ns: UnityEngine.Localization, asm: Unity.Localization}
      data:
        m_TableReference:
          m_TableCollectionName: GUID:202771e7b5f9fec4788c07169cbe2ac5
        m_TableEntryReference:
          m_KeyId: 328255052382208
          m_Key: 
        m_FallbackState: 0
        m_WaitForCompletion: 0
