%YAML 1.1
%TAG !u! tag:unity3d.com,2011:
--- !u!114 &11400000
MonoBehaviour:
  m_ObjectHideFlags: 0
  m_CorrespondingSourceObject: {fileID: 0}
  m_PrefabInstance: {fileID: 0}
  m_PrefabAsset: {fileID: 0}
  m_GameObject: {fileID: 0}
  m_Enabled: 1
  m_EditorHideFlags: 0
  m_Script: {fileID: 11500000, guid: a1eceaffa4430734ebd3665a78b58724, type: 3}
  m_Name: Refreshable Data Base Host
  m_EditorClassIdentifier: 
  _scheme: http
  _domain: 127.0.0.1
  _port: 8000
  _APIRootPath: 
