%YAML 1.1
%TAG !u! tag:unity3d.com,2011:
--- !u!114 &11400000
MonoBehaviour:
  m_ObjectHideFlags: 0
  m_CorrespondingSourceObject: {fileID: 0}
  m_PrefabInstance: {fileID: 0}
  m_PrefabAsset: {fileID: 0}
  m_GameObject: {fileID: 0}
  m_Enabled: 1
  m_EditorHideFlags: 0
  m_Script: {fileID: 11500000, guid: e9620f8c34305754d8cc9a7e49e852d9, type: 3}
  m_Name: Texts_en-US
  m_EditorClassIdentifier: 
  m_LocaleId:
    m_Code: en-US
  m_SharedData: {fileID: 11400000, guid: 5cbc6ada1a50e1b4d894405832f3cac8, type: 2}
  m_Metadata:
    m_Items: []
  m_TableData:
  - m_Id: 12577791475712
    m_Localized: 'Joystick

      control'
    m_Metadata:
      m_Items: []
  - m_Id: 16018861391872
    m_Localized: 'Up and down

      to scroll'
    m_Metadata:
      m_Items: []
  - m_Id: 43746167816192
    m_Localized: Next
    m_Metadata:
      m_Items: []
  - m_Id: 43897582190592
    m_Localized: Back
    m_Metadata:
      m_Items: []
  - m_Id: 743620387471360
    m_Localized: 'Left to return

      to the previous page'
    m_Metadata:
      m_Items: []
  - m_Id: 750943235407872
    m_Localized: 'Joystick

      control'
    m_Metadata:
      m_Items: []
  - m_Id: 942944794902528
    m_Localized: Choose a category
    m_Metadata:
      m_Items: []
  - m_Id: 239700221296640
    m_Localized: 'Right to play

      a video'
    m_Metadata:
      m_Items: []
  - m_Id: 266702487748608
    m_Localized: 'Left to stop

      a video'
    m_Metadata:
      m_Items: []
  - m_Id: 289370867957760
    m_Localized: 'Right to select

      a partition'
    m_Metadata:
      m_Items: []
  - m_Id: 635475921633280
    m_Localized: About
    m_Metadata:
      m_Items: []
  references:
    version: 2
    RefIds: []
