%YAML 1.1
%TAG !u! tag:unity3d.com,2011:
--- !u!114 &11400000
MonoBehaviour:
  m_ObjectHideFlags: 0
  m_CorrespondingSourceObject: {fileID: 0}
  m_PrefabInstance: {fileID: 0}
  m_PrefabAsset: {fileID: 0}
  m_GameObject: {fileID: 0}
  m_Enabled: 1
  m_EditorHideFlags: 0
  m_Script: {fileID: 11500000, guid: ad83bd59451ef64438e7f7634e5eb1e4, type: 3}
  m_Name: Catalogue Items Container
  m_EditorClassIdentifier: 
  serializationData:
    SerializedFormat: 2
    SerializedBytes: 
    ReferencedUnityObjects: []
    SerializedBytesString: 
    Prefab: {fileID: 0}
    PrefabModificationsReferencedUnityObjects: []
    PrefabModifications: []
    SerializationNodes:
    - Name: _categories
      Entry: 7
      Data: 0|System.Collections.Generic.Dictionary`2[[System.UInt32, mscorlib],[ICD.SberCatalogue.Model.Category,
        ICD.SberCatalogue.Model]], mscorlib
    - Name: comparer
      Entry: 7
      Data: 1|System.Collections.Generic.GenericEqualityComparer`1[[System.UInt32,
        mscorlib]], mscorlib
    - Name: 
      Entry: 8
      Data: 
    - Name: 
      Entry: 12
      Data: 0
    - Name: 
      Entry: 13
      Data: 
    - Name: 
      Entry: 8
      Data: 
    - Name: _products
      Entry: 7
      Data: 2|System.Collections.Generic.Dictionary`2[[System.UInt32, mscorlib],[ICD.SberCatalogue.Model.Product,
        ICD.SberCatalogue.Model]], mscorlib
    - Name: comparer
      Entry: 9
      Data: 1
    - Name: 
      Entry: 12
      Data: 0
    - Name: 
      Entry: 13
      Data: 
    - Name: 
      Entry: 8
      Data: 
  _categoriesLocalizedDataContainter: {fileID: 11400000, guid: 120f7e7dfa068b547adb9ee071b3fc33, type: 2}
  _productsLocalizedDataContainter: {fileID: 11400000, guid: e8ab53a2b521d6e4c989ae1b0a62ae59, type: 2}
